без  стеммера:
[ { word: 'месяц', count: 13 },
  { word: 'акция', count: 13 },
  { word: 'скидкой', count: 16 },
  { word: 'доставка', count: 22 },
  { word: 'бесплатно', count: 14 },
  { word: 'без', count: 22 },
  { word: 'заказать', count: 18 },
  { word: 'выбор', count: 16 },
  { word: 'акции', count: 14 },
  { word: 'подарок', count: 24 },
  { word: 'заказ', count: 14 },
  { word: 'оплата', count: 13 },
  { word: 'получении', count: 13 },
  { word: 'будет', count: 16 },
  { word: 'сделать', count: 13 },
  { word: 'сейчас', count: 12 },
  { word: 'рублей', count: 23 },
  { word: 'время', count: 11 },
  { word: 'просто', count: 12 },
  { word: 'больше', count: 15 },
  { word: 'более', count: 11 },
  { word: 'заказа', count: 12 },
  { word: 'после', count: 11 },
  { word: 'цена', count: 16 },
  { word: 'группу', count: 12 },
  { word: 'купить', count: 23 },
  { word: 'место', count: 15 },
  { word: 'фото', count: 20 },
  { word: 'можно', count: 20 },
  { word: 'каждый', count: 11 },
  { word: 'апреля', count: 12 },
  { word: 'очень', count: 14 },
  { word: 'чтобы', count: 18 },
  { word: 'нужно', count: 16 },
  { word: 'даже', count: 11 },
  { word: 'подпишись', count: 20 } ] 'Len: 36'
со  стеммингом:
 { word: 'друз', count: 14 },
  { word: 'апрел', count: 13 },
  { word: 'месяц', count: 24 },
  { word: 'акц', count: 30 },
  { word: 'скидк', count: 37 },
  { word: 'доставк', count: 29 },
  { word: 'бесплатн', count: 37 },
  { word: 'без', count: 22 },
  { word: 'заказа', count: 18 },
  { word: 'нов', count: 22 },
  { word: 'лучш', count: 17 },
  { word: 'выбор', count: 17 },
  { word: 'размер', count: 14 },
  { word: 'год', count: 11 },
  { word: 'распродаж', count: 11 },
  { word: 'качеств', count: 14 },
  { word: 'подарок', count: 24 },
  { word: 'кажд', count: 21 },
  { word: 'сдела', count: 20 },
  { word: 'заказ', count: 33 },
  { word: 'оплат', count: 19 },
  { word: 'получен', count: 17 },
  { word: 'будет', count: 18 },
  { word: 'цен', count: 36 },
  { word: 'отличн', count: 15 },
  { word: 'сейчас', count: 12 },
  { word: 'очк', count: 12 },
  { word: 'рубл', count: 23 },
  { word: 'жизн', count: 11 },
  { word: 'врем', count: 11 },
  { word: 'прост', count: 14 },
  { word: 'больш', count: 24 },
  { word: 'работ', count: 13 },
  { word: 'нача', count: 13 },
  { word: 'бол', count: 11 },
  { word: 'групп', count: 30 },
  { word: 'подробн', count: 17 },
  { word: 'получ', count: 19 },
  { word: 'посл', count: 11 },
  { word: 'пиш', count: 12 },
  { word: 'сайт', count: 16 },
  { word: 'сам', count: 11 },
  { word: 'уникальн', count: 12 },
  { word: 'куп', count: 24 },
  { word: 'конкурс', count: 13 },
  { word: 'мест', count: 18 },
  { word: 'подписа', count: 11 },
  { word: 'репост', count: 13 },
  { word: 'фот', count: 20 },
  { word: 'люб', count: 21 },
  { word: 'час', count: 11 },
  { word: 'можн', count: 20 },
  { word: 'может', count: 11 },
  { word: 'ссылк', count: 14 },
  { word: 'перв', count: 13 },
  { word: 'очен', count: 14 },
  { word: 'чтоб', count: 18 },
  { word: 'дела', count: 13 },
  { word: 'комплект', count: 12 },
  { word: 'нужн', count: 18 },
  { word: 'даж', count: 11 },
  { word: 'волос', count: 15 },
  { word: 'быстр', count: 11 },
  { word: 'подписыва', count: 13 },
  { word: 'паблик', count: 12 },
  { word: 'компан', count: 16 },
  { word: 'участ', count: 12 },
  { word: 'игр', count: 11 },
  { word: 'подпиш', count: 21 } ] 'Len: 69'

вывод - стемминг находи больше слов, + находит больше вхождений (например, "получен")